Text,Label
Everything bothers me today ,IRRITATION
Everything pisses me off today ,IRRITATION
I'm sick of you ,IRRITATION
I haven't seen my friends for a long time ,IRRITATION
I haven't left the house for a long time ,IRRITATION
Everything annoys me ,IRRITATION
Nobody wants to play with me ,IRRITATION
My grades are too low ,IRRITATION
I feel underappreciated ,IRRITATION
I'm sick of this life! ,BAD THOUGHTS
I'm sad ,BAD THOUGHTS
I miss meetings with my friends ,BAD THOUGHTS
I'm lonely ,BAD THOUGHTS
Nobody likes me ,BAD THOUGHTS
I dont have friends ,BAD THOUGHTS
Nobody wants to talk to me ,BAD THOUGHTS
I don't like my colleagues ,BAD THOUGHTS
I hate my parents ,BAD THOUGHTS
My sister annoys me ,BAD THOUGHTS
My brother annoys me ,BAD THOUGHTS
I hate people ,BAD THOUGHTS
I hate life ,BAD THOUGHTS
Get back from me ,EMOTIONAL OUTBURST
Give me a break ,EMOTIONAL OUTBURST
I don't feel like talking ,EMOTIONAL OUTBURST
I do not want to talk ,EMOTIONAL OUTBURST
I'm sick of you ,EMOTIONAL OUTBURST
I hate my parents ,EMOTIONAL OUTBURST
I'm sleepy today ,OVERTIRED
I feel weary ,OVERTIRED
I slept very little today ,OVERTIRED
I still feel like sleeping ,OVERTIRED
I'm very tired ,OVERTIRED
I can not concentrate ,OVERTIRED
I have problems concentrating ,OVERTIRED
I can't sit for so many hours at the computer ,OVERTIRED
Sorry  but I didn't do my homework because my stomach hurts all the time ,COMPLAINING
I didn't do my homework because yesterday I had a headache ,COMPLAINING
I'm feeling bad today ,COMPLAINING
I didn't sleep well today ,COMPLAINING
I want to do nothing ,COMPLAINING
I'm still sad and don't even want to get out of bed in the morning ,COMPLAINING
I'm sleepy ,COMPLAINING
I feel weary ,COMPLAINING
I slept very little today ,COMPLAINING
I miss meetings with my friends ,COMPLAINING
I haven't seen my friends for a long time ,COMPLAINING
I haven't left the house for a long time ,COMPLAINING
I couldn't sleep yesterday ,COMPLAINING
I cannot focus on distance learning ,COMPLAINING
I am worried about the test results ,ANXIETY
I'm worried about the results of the card game ,ANXIETY
I'm afraid of bad grades ,ANXIETY
I'm afraid that I won't pass to the next grade ,ANXIETY
I'm afraid that I won't get into high school ,ANXIETY
I'm afraid I won't get into high school ,ANXIETY
I'm afraid that I won't get into college ,ANXIETY
I don't know if I can handle my studies ,ANXIETY
The tasks are too difficult for me ,ANXIETY
I am too weak ,ANXIETY
I can't handle it ,ANXIETY
I made my parents nervous ,ANXIETY
I do not care ,SWEARING
Fuck ,SWEARING
Fuck ,SWEARING
I do not care ,SWEARING
Janek insults me ,EXPERIENCING BULLYING
Magda talked about me ,EXPERIENCING BULLYING
Marek makes fun of me ,EXPERIENCING BULLYING
Andrzej kicked me ,EXPERIENCING BULLYING
My colleagues mock me ,EXPERIENCING BULLYING
Michał was pulling my hair ,EXPERIENCING BULLYING
My colleagues are humiliating me ,EXPERIENCING BULLYING
I do not remember ,FORGETFUL
I do not know ,FORGETFUL
I forgot ,FORGETFUL
I forgot to do my homework ,FORGETFUL
I forgot about today's postcard ,FORGETFUL
I forgot that today is a test ,FORGETFUL
I forgot about the meeting ,FORGETFUL
I forgot what time the lessons start ,FORGETFUL
I forgot my homework ,FORGETFUL
I don't remember what was asked ,FORGETFUL
I don't remember if I did my homework ,FORGETFUL
I don't remember what I ate today ,EATING DISORDERS
I haven't eaten breakfast ,EATING DISORDERS
I am not interested in food ,EATING DISORDERS
I didn't eat yesterday ,EATING DISORDERS
I haven't eaten today ,EATING DISORDERS
I'm hungry ,EATING DISORDERS
Food is unnecessary ,EATING DISORDERS
The food is gross ,EATING DISORDERS
I've got a stomachache ,EATING DISORDERS
I have stomach problems ,EATING DISORDERS
I don't like anything ,EATING DISORDERS
I don't focus on eating ,EATING DISORDERS
I don't care what I eat ,EATING DISORDERS